Lab 4/Circuit/simulation/qsim/Lab2.msim.vcd
$comment
	File created using the following command:
		vcd file Lab2.msim.vcd -direction
$end
$date
	Thu Jun 15 12:48:49 2023
$end
$version
	ModelSim Version 10.5b
$end
$timescale
	1ps
$end

$scope module Lab2_vlg_vec_tst $end
$var reg 1 ! W $end
$var reg 1 " X $end
$var reg 1 # Y $end
$var reg 1 $ Z $end
$var wire 1 % A $end

$scope module i1 $end
$var wire 1 & gnd $end
$var wire 1 ' vcc $end
$var wire 1 ( unknown $end
$var tri1 1 ) devclrn $end
$var tri1 1 * devpor $end
$var tri1 1 + devoe $end
$var wire 1 , A~output_o $end
$var wire 1 - Y~input_o $end
$var wire 1 . Z~input_o $end
$var wire 1 / W~input_o $end
$var wire 1 0 X~input_o $end
$var wire 1 1 inst2~0_combout $end
$upscope $end
$upscope $end
$enddefinitions $end
#0
$dumpvars
0!
0"
0#
0$
0%
0&
1'
x(
1)
1*
1+
0,
0-
0.
0/
00
11
$end
#200000
1$
1.
#400000
1#
0$
1-
0.
01
1,
1%
#600000
1$
1.
#800000
1"
0#
0$
10
0-
0.
11
0,
0%
#1000000
1$
1.
#1200000
1#
0$
1-
0.
#1400000
1$
1.
01
1,
1%
#1600000
1!
0"
0#
0$
1/
00
0-
0.
#1800000
1$
1.
11
0,
0%
#2000000
1#
0$
1-
0.
01
1,
1%
#2200000
1$
1.
#2400000
1"
0#
0$
10
0-
0.
#2600000
1$
1.
11
0,
0%
#2800000
1#
0$
1-
0.
01
1,
1%
#3000000
1$
1.
