Lab 4/Circuit/simulation/qsim/Lab2.msim.vcd
$comment
	File created using the following command:
		vcd file Lab2.msim.vcd -direction
$end
$date
	Thu Jun 15 15:20:05 2023
$end
$version
	ModelSim Version 10.5b
$end
$timescale
	1ps
$end

$scope module Lab2_vlg_vec_tst $end
$var reg 1 ! CLOCK $end
$var reg 1 " GO $end
$var reg 1 # RESETN $end
$var reg 1 $ STOP $end
$var wire 1 % g_en $end
$var wire 1 & Q [1] $end
$var wire 1 ' Q [0] $end
$var wire 1 ( r_en $end
$var wire 1 ) y_en $end

$scope module i1 $end
$var wire 1 * gnd $end
$var wire 1 + vcc $end
$var wire 1 , unknown $end
$var tri1 1 - devclrn $end
$var tri1 1 . devpor $end
$var tri1 1 / devoe $end
$var wire 1 0 g_en~output_o $end
$var wire 1 1 y_en~output_o $end
$var wire 1 2 r_en~output_o $end
$var wire 1 3 Q[1]~output_o $end
$var wire 1 4 Q[0]~output_o $end
$var wire 1 5 CLOCK~input_o $end
$var wire 1 6 GO~input_o $end
$var wire 1 7 STOP~input_o $end
$var wire 1 8 inst8~combout $end
$var wire 1 9 RESETN~input_o $end
$var wire 1 : inst|10~q $end
$var wire 1 ; inst2~0_combout $end
$var wire 1 < inst|9~q $end
$var wire 1 = inst11~combout $end
$upscope $end
$upscope $end
$enddefinitions $end
#0
$dumpvars
0!
0"
1#
0$
0%
0'
0&
0(
1)
0*
1+
x,
1-
1.
1/
00
11
02
03
04
05
06
07
08
19
0:
0;
0<
0=
$end
#25000
1!
15
#50000
0!
05
#60000
1$
17
1;
#75000
1!
15
1<
12
14
1=
1'
1(
01
0)
#100000
0!
05
#110000
0$
07
#125000
1!
15
#150000
0!
05
#160000
1"
16
0;
18
#175000
1!
15
0<
1:
10
13
02
04
0'
0(
1&
1%
#200000
0!
05
#210000
0"
06
08
#225000
1!
15
0:
00
03
0=
0&
0%
11
1)
#250000
0!
05
#260000
1$
1"
17
16
1;
#275000
1!
15
1<
12
14
1=
1'
1(
01
0)
#300000
0!
05
#325000
1!
15
#340000
0$
07
0;
18
#350000
0!
05
#375000
1!
15
0<
1:
10
13
02
04
0'
0(
1&
1%
#400000
0!
05
#410000
1$
17
1;
08
#425000
1!
15
1<
0:
00
03
12
14
1'
1(
0&
0%
#450000
0!
05
#475000
1!
15
#500000
0!
05
#520000
0$
07
0;
18
#525000
1!
15
0<
1:
10
13
02
04
0'
0(
1&
1%
#530000
1$
17
1;
08
#540000
0"
06
0;
#550000
0!
05
#575000
1!
15
0:
00
03
0=
0&
0%
1;
11
1)
#590000
0$
07
0;
#600000
1"
0!
16
05
18
#625000
1!
15
1:
10
13
1=
1&
1%
01
0)
#640000
0"
06
08
#650000
0!
05
#660000
1$
17
#675000
1!
15
0:
00
03
0=
0&
0%
1;
11
1)
#700000
0!
05
#725000
1!
15
1<
12
14
1=
1'
1(
01
0)
#750000
0!
05
#775000
1!
15
#800000
0$
0!
07
05
#825000
1!
15
#840000
0#
09
0<
02
04
0=
0'
0(
0;
11
1)
#850000
0!
05
#875000
1!
15
#890000
1#
19
#900000
0!
05
#925000
1!
15
#950000
0!
05
#975000
1!
15
