Lab 4/Circuit/simulation/qsim/Lab2.msim.vcd
$comment
	File created using the following command:
		vcd file Lab2.msim.vcd -direction
$end
$date
	Thu Jun 15 13:57:04 2023
$end
$version
	ModelSim Version 10.5b
$end
$timescale
	1ps
$end

$scope module Lab2_vlg_vec_tst $end
$var reg 1 ! GO $end
$var reg 1 " Q1 $end
$var reg 1 # Q2 $end
$var reg 1 $ STOP $end
$var wire 1 % g_en $end
$var wire 1 & Q1n $end
$var wire 1 ' Q2n $end
$var wire 1 ( r_en $end
$var wire 1 ) y_en $end

$scope module i1 $end
$var wire 1 * gnd $end
$var wire 1 + vcc $end
$var wire 1 , unknown $end
$var tri1 1 - devclrn $end
$var tri1 1 . devpor $end
$var tri1 1 / devoe $end
$var wire 1 0 g_en~output_o $end
$var wire 1 1 y_en~output_o $end
$var wire 1 2 r_en~output_o $end
$var wire 1 3 Q1n~output_o $end
$var wire 1 4 Q2n~output_o $end
$var wire 1 5 Q2~input_o $end
$var wire 1 6 Q1~input_o $end
$var wire 1 7 inst11~combout $end
$var wire 1 8 STOP~input_o $end
$var wire 1 9 GO~input_o $end
$var wire 1 : inst2~0_combout $end
$var wire 1 ; inst8~combout $end
$upscope $end
$upscope $end
$enddefinitions $end
#0
$dumpvars
0!
0"
0#
0$
0%
0&
0'
0(
1)
0*
1+
x,
1-
1.
1/
00
11
02
03
04
05
06
07
08
09
1:
0;
$end
#200000
1!
19
1;
14
1'
#400000
1$
0!
18
09
0:
0;
04
13
1&
0'
#600000
1!
19
#800000
1#
0$
0!
08
09
15
10
1:
17
1%
01
03
0&
0)
#1000000
1!
19
1;
14
1'
#1200000
1$
0!
18
09
0;
04
0'
#1400000
1!
19
0:
13
1&
#1600000
1"
0#
0$
0!
08
09
16
05
00
12
1(
0%
#1800000
1!
19
1:
1;
14
03
0&
1'
#2000000
1$
0!
18
09
0:
0;
04
13
1&
0'
#2200000
1!
19
#2400000
1#
0$
0!
08
09
15
10
1%
#2600000
1!
19
1:
1;
14
03
0&
1'
#2800000
1$
0!
18
09
0:
0;
04
13
1&
0'
#3000000
1!
19
