Lab 5/Pre Lab/simulation/qsim/PreLab5.msim.vcd
$comment
	File created using the following command:
		vcd file PreLab5.msim.vcd -direction
$end
$date
	Thu Jun 22 15:01:07 2023
$end
$version
	ModelSim Version 10.5b
$end
$timescale
	1ps
$end

$scope module prelab5_vhd_vec_tst $end
$var wire 1 ! clock $end
$var wire 1 " g_en $end
$var wire 1 # go $end
$var wire 1 $ r_en $end
$var wire 1 % resetn $end
$var wire 1 & stop $end
$var wire 1 ' y_en $end

$scope module i1 $end
$var wire 1 ( gnd $end
$var wire 1 ) vcc $end
$var wire 1 * unknown $end
$var wire 1 + devoe $end
$var wire 1 , devclrn $end
$var wire 1 - devpor $end
$var wire 1 . ww_devoe $end
$var wire 1 / ww_devclrn $end
$var wire 1 0 ww_devpor $end
$var wire 1 1 ww_stop $end
$var wire 1 2 ww_go $end
$var wire 1 3 ww_clock $end
$var wire 1 4 ww_resetn $end
$var wire 1 5 ww_r_en $end
$var wire 1 6 ww_y_en $end
$var wire 1 7 ww_g_en $end
$var wire 1 8 \r_en~output_o\ $end
$var wire 1 9 \y_en~output_o\ $end
$var wire 1 : \g_en~output_o\ $end
$var wire 1 ; \clock~input_o\ $end
$var wire 1 < \go~input_o\ $end
$var wire 1 = \stop~input_o\ $end
$var wire 1 > \process_0~0_combout\ $end
$var wire 1 ? \resetn~input_o\ $end
$var wire 1 @ \state.g_light~q\ $end
$var wire 1 A \Selector1~0_combout\ $end
$var wire 1 B \state.y_light~q\ $end
$var wire 1 C \Selector0~0_combout\ $end
$var wire 1 D \state.r_light~q\ $end
$var wire 1 E \ALT_INV_stop~input_o\ $end
$var wire 1 F \ALT_INV_go~input_o\ $end
$var wire 1 G \ALT_INV_state.g_light~q\ $end
$var wire 1 H \ALT_INV_state.y_light~q\ $end
$upscope $end
$upscope $end
$enddefinitions $end
#0
$dumpvars
0!
0"
0#
0$
1%
0&
1'
0(
1)
x*
1+
1,
1-
1.
1/
10
01
02
03
14
05
16
07
08
19
0:
0;
0<
0=
0>
1?
0@
0A
0B
0C
0D
1E
1F
1G
1H
$end
#25000
1!
13
1;
#50000
0!
03
0;
#60000
1&
11
1=
0E
1A
1C
#75000
1!
13
1;
1B
1D
0H
18
09
15
06
1$
0'
#100000
0!
03
0;
#110000
0&
01
0=
1E
#125000
1!
13
1;
#150000
0!
03
0;
#160000
1#
12
1<
0F
1>
0C
#175000
1!
13
1;
1@
0D
0G
08
1:
05
17
0$
1"
#200000
0!
03
0;
#220000
0#
02
0<
1F
0>
0A
#225000
1!
13
1;
0@
0B
1H
1G
0:
19
07
16
0"
1'
#250000
0!
03
0;
#260000
1#
1&
12
11
1=
1<
0F
0E
1A
1C
#275000
1!
13
1;
1B
1D
0H
18
09
15
06
1$
0'
#300000
0!
03
0;
#325000
1!
13
1;
#340000
0&
01
0=
1E
1>
0C
#350000
0!
03
0;
#375000
1!
13
1;
1@
0D
0G
08
1:
05
17
0$
1"
#400000
0!
03
0;
#410000
1&
11
1=
0E
0>
1C
#425000
1!
13
1;
0@
1D
1G
18
0:
15
07
1$
0"
#450000
0!
03
0;
#475000
1!
13
1;
#500000
0!
03
0;
#510000
0&
01
0=
1E
1>
0C
#525000
1!
13
1;
1@
0D
0G
08
1:
05
17
0$
1"
#530000
1&
11
1=
0E
0>
1C
#540000
0#
02
0<
1F
0A
0C
#550000
0!
03
0;
#575000
1!
13
1;
0@
0B
1H
1G
1A
1C
0:
19
07
16
0"
1'
#590000
0&
01
0=
1E
0A
0C
#600000
0!
1#
03
12
1<
0;
0F
1>
1A
#625000
1!
13
1;
1@
1B
0H
0G
1:
09
17
06
1"
0'
#640000
0#
02
0<
1F
0>
0A
#650000
0!
03
0;
#660000
1&
11
1=
0E
#675000
1!
13
1;
0@
0B
1H
1G
1A
1C
0:
19
07
16
0"
1'
#700000
0!
03
0;
#725000
1!
13
1;
1B
1D
0H
18
09
15
06
1$
0'
#750000
0!
03
0;
#775000
1!
13
1;
#800000
0!
0&
03
01
0=
0;
1E
#825000
1!
13
1;
#840000
0%
04
0?
0B
0D
1H
0A
0C
08
19
05
16
0$
1'
#850000
0!
03
0;
#875000
1!
13
1;
#890000
1%
14
1?
#900000
0!
03
0;
#925000
1!
13
1;
#950000
0!
03
0;
#975000
1!
13
1;
